hw/obj_dir/outputs/sim.vcd
$version Generated by VerilatedVcd $end
$date Thu Nov 27 02:02:35 2025
 $end
$timescale   1ps $end

 $scope module TOP $end
  $var wire  1 ? clk $end
  $var wire 32 G data_out [31:0] $end
  $var wire  1 E full $end
  $var wire 32 C host_data_in [31:0] $end
  $var wire  1 A host_mode $end
  $var wire  1 D host_pop_req $end
  $var wire  1 B host_push_req $end
  $var wire  1 @ reset $end
  $var wire  1 H tb_done $end
  $var wire  1 F valid_out $end
  $scope module tb_task_queue $end
   $var wire  2 % arb_grant_out [1:0] $end
   $var wire  2 & arb_served_bank [1:0] $end
   $var wire  1 ? clk $end
   $var wire 32 = data_in [31:0] $end
   $var wire 32 G data_out [31:0] $end
   $var wire 32 $ dist_out_data [31:0] $end
   $var wire  1 # dist_out_valid $end
   $var wire  1 E full $end
   $var wire 32 C host_data_in [31:0] $end
   $var wire  1 A host_mode $end
   $var wire  1 D host_pop_req $end
   $var wire  1 B host_push_req $end
   $var wire  1 > pop_req $end
   $var wire  1 < push_req $end
   $var wire  1 @ reset $end
   $var wire  1 H tb_done $end
   $var wire  1 F valid_out $end
   $scope module arbiter $end
    $var wire  1 ? clk $end
    $var wire  1 I dummy_bit $end
    $var wire  2 % grant_out [1:0] $end
    $var wire 32 G in_data [31:0] $end
    $var wire  1 F in_valid $end
    $var wire  1 @ reset $end
    $var wire  1 ; rr $end
    $var wire  2 & served_bank [1:0] $end
   $upscope $end
   $scope module distributor $end
    $var wire 32 $ buffered_data [31:0] $end
    $var wire  1 # buffered_valid $end
    $var wire  1 ? clk $end
    $var wire  1 M consumer_ready $end
    $var wire 32 G in_data [31:0] $end
    $var wire 32 : in_data_reg [31:0] $end
    $var wire  1 F in_valid $end
    $var wire 32 $ out_data [31:0] $end
    $var wire  1 # out_valid $end
    $var wire  1 @ reset $end
   $upscope $end
   $scope module dut_queue $end
    $var wire 32 J DEPTH [31:0] $end
    $var wire 32 L PTR_W [31:0] $end
    $var wire 32 K WIDTH [31:0] $end
    $var wire  1 ? clk $end
    $var wire  5 9 count [4:0] $end
    $var wire 32 = data_in [31:0] $end
    $var wire 32 G data_out [31:0] $end
    $var wire  1 E full $end
    $var wire  4 7 head [3:0] $end
    $var wire 32 ' mem(0) [31:0] $end
    $var wire 32 ( mem(1) [31:0] $end
    $var wire 32 1 mem(10) [31:0] $end
    $var wire 32 2 mem(11) [31:0] $end
    $var wire 32 3 mem(12) [31:0] $end
    $var wire 32 4 mem(13) [31:0] $end
    $var wire 32 5 mem(14) [31:0] $end
    $var wire 32 6 mem(15) [31:0] $end
    $var wire 32 ) mem(2) [31:0] $end
    $var wire 32 * mem(3) [31:0] $end
    $var wire 32 + mem(4) [31:0] $end
    $var wire 32 , mem(5) [31:0] $end
    $var wire 32 - mem(6) [31:0] $end
    $var wire 32 . mem(7) [31:0] $end
    $var wire 32 / mem(8) [31:0] $end
    $var wire 32 0 mem(9) [31:0] $end
    $var wire  1 > pop_req $end
    $var wire  1 < push_req $end
    $var wire  1 @ reset $end
    $var wire  4 8 tail [3:0] $end
    $var wire  1 F valid_out $end
   $upscope $end
  $upscope $end
 $upscope $end
$enddefinitions $end


#0
0#
b00000000000000000000000000000000 $
b00 %
b00 &
b00000000000000000000000000000000 '
b00000000000000000000000000000000 (
b00000000000000000000000000000000 )
b00000000000000000000000000000000 *
b00000000000000000000000000000000 +
b00000000000000000000000000000000 ,
b00000000000000000000000000000000 -
b00000000000000000000000000000000 .
b00000000000000000000000000000000 /
b00000000000000000000000000000000 0
b00000000000000000000000000000000 1
b00000000000000000000000000000000 2
b00000000000000000000000000000000 3
b00000000000000000000000000000000 4
b00000000000000000000000000000000 5
b00000000000000000000000000000000 6
b0000 7
b0000 8
b00000 9
b00000000000000000000000000000000 :
0;
0<
b00000000000000000000000000000000 =
0>
0?
1@
1A
0B
b00000000000000000000000000000000 C
0D
0E
0F
b00000000000000000000000000000000 G
0H
0I
b00000000000000000000000000010000 J
b00000000000000000000000000100000 K
b00000000000000000000000000000100 L
1M
#1
#2
1?
#3
0?
#4
1?
#5
0?
#6
1?
#7
0?
#8
1?
#9
0?
0@
#10
1?
#11
1<
b10100101101001011010010110100101 =
0?
1B
b10100101101001011010010110100101 C
#12
b10100101101001011010010110100101 '
b0001 8
b00001 9
1?
1F
b10100101101001011010010110100101 G
#13
b11011110101011011011111011101111 =
0?
b11011110101011011011111011101111 C
#14
1#
b01 %
b01 &
b11011110101011011011111011101111 (
b0010 8
b00010 9
b10100101101001011010010110100101 :
1;
1?
#15
b00000001001000110100010101100111 =
0?
b00000001001000110100010101100111 C
#16
0#
b10 %
b10 &
b00000001001000110100010101100111 )
b0011 8
b00011 9
0;
1?
#17
b10001001101010111100110111101111 =
0?
b10001001101010111100110111101111 C
#18
1#
b10100101101001011010010110100101 $
b01 %
b01 &
b10001001101010111100110111101111 *
b0100 8
b00100 9
1;
1?
#19
0<
b00000000000000000000000000000000 =
1>
0?
0B
b00000000000000000000000000000000 C
1D
#20
0#
b10 %
b10 &
b0001 7
b00011 9
0;
1?
b11011110101011011011111011101111 G
#21
0?
#22
1#
b01 %
b01 &
b0010 7
b00010 9
b11011110101011011011111011101111 :
1;
1?
b00000001001000110100010101100111 G
#23
1<
b11001010111111101011101010111110 =
0>
0?
1B
b11001010111111101011101010111110 C
0D
#24
0#
b10 %
b10 &
b11001010111111101011101010111110 +
b0101 8
b00011 9
b00000001001000110100010101100111 :
0;
1?
#25
b00001011101011011111000000001101 =
0?
b00001011101011011111000000001101 C
#26
1#
b00000001001000110100010101100111 $
b01 %
b01 &
b00001011101011011111000000001101 ,
b0110 8
b00100 9
1;
1?
#27
0<
b00000000000000000000000000000000 =
1>
0?
0B
b00000000000000000000000000000000 C
1D
#28
0#
b10 %
b10 &
b0011 7
b00011 9
0;
1?
b10001001101010111100110111101111 G
#29
0?
#30
1#
b01 %
b01 &
b0100 7
b00010 9
b10001001101010111100110111101111 :
1;
1?
b11001010111111101011101010111110 G
#31
0?
#32
0#
b10 %
b10 &
b0101 7
b00001 9
b11001010111111101011101010111110 :
0;
1?
b00001011101011011111000000001101 G
1I
#33
0?
#34
1#
b11001010111111101011101010111110 $
b01 %
b01 &
b0110 7
b00000 9
b00001011101011011111000000001101 :
1;
1?
0F
b00000000000000000000000000000000 G
0I
#35
0>
0?
1@
0D
#36
0#
b00000000000000000000000000000000 $
b00 %
b00 &
b0000 7
b0000 8
b00000000000000000000000000000000 :
0;
1?
b10100101101001011010010110100101 G
#37
0?
#38
1?
#39
0?
#40
1?
#41
0?
#42
1?
#43
0?
0@
#44
b10100101101001011010010110100101 :
1?
#45
1<
b00101101111010010011001010111111 =
0?
1B
b00101101111010010011001010111111 C
#46
b00101101111010010011001010111111 '
b0001 8
b00001 9
1?
1F
b00101101111010010011001010111111 G
1I
#47
0<
b00000000000000000000000000000000 =
0?
0B
b00000000000000000000000000000000 C
#48
1#
b10100101101001011010010110100101 $
b01 %
b01 &
b00101101111010010011001010111111 :
1;
1?
#49
1<
b01111011011000001111110111111111 =
0?
1B
b01111011011000001111110111111111 C
#50
0#
b10 %
b10 &
b01111011011000001111110111111111 (
b0010 8
b00010 9
0;
1?
#51
0<
b00000000000000000000000000000000 =
1>
0?
0B
b00000000000000000000000000000000 C
1D
#52
1#
b00101101111010010011001010111111 $
b01 %
b01 &
b0001 7
b00001 9
1;
1?
b01111011011000001111110111111111 G
#53
0>
0?
0D
#54
0#
b10 %
b10 &
b01111011011000001111110111111111 :
0;
1?
#55
0?
#56
1#
b01111011011000001111110111111111 $
b01 %
b01 &
1;
1?
#57
1<
b01010101010101001100011111111010 =
0?
1B
b01010101010101001100011111111010 C
#58
0#
b10 %
b10 &
b01010101010101001100011111111010 )
b0011 8
b00010 9
0;
1?
#59
b00110110110101101000100100110110 =
0?
b00110110110101101000100100110110 C
#60
1#
b01 %
b01 &
b00110110110101101000100100110110 *
b0100 8
b00011 9
1;
1?
#61
b01001001101010111000111011101100 =
0?
b01001001101010111000111011101100 C
#62
0#
b10 %
b10 &
b01001001101010111000111011101100 +
b0101 8
b00100 9
0;
1?
#63
b01001101001110100110101011001000 =
0?
b01001101001110100110101011001000 C
#64
1#
b01 %
b01 &
b01001101001110100110101011001000 ,
b0110 8
b00101 9
1;
1?
#65
b00011011111011000111000110000001 =
0?
b00011011111011000111000110000001 C
#66
0#
b10 %
b10 &
b00011011111011000111000110000001 -
b0111 8
b00110 9
0;
1?
#67
0<
b00000000000000000000000000000000 =
1>
0?
0B
b00000000000000000000000000000000 C
1D
#68
1#
b01 %
b01 &
b0010 7
b00101 9
1;
1?
b01010101010101001100011111111010 G
0I
#69
1<
b00011111100000000000101011011110 =
0>
0?
1B
b00011111100000000000101011011110 C
0D
#70
0#
b10 %
b10 &
b00011111100000000000101011011110 .
b1000 8
b00110 9
b01010101010101001100011111111010 :
0;
1?
#71
0<
b00000000000000000000000000000000 =
1>
0?
0B
b00000000000000000000000000000000 C
1D
#72
1#
b01010101010101001100011111111010 $
b01 %
b01 &
b0011 7
b00101 9
1;
1?
b00110110110101101000100100110110 G
#73
0>
0?
0D
#74
0#
b10 %
b10 &
b00110110110101101000100100110110 :
0;
1?
#75
1<
b00001010111010000111100100000011 =
0?
1B
b00001010111010000111100100000011 C
#76
1#
b00110110110101101000100100110110 $
b01 %
b01 &
b00001010111010000111100100000011 /
b1001 8
b00110 9
1;
1?
#77
b01100110110001000001111010011111 =
0?
b01100110110001000001111010011111 C
#78
0#
b10 %
b10 &
b01100110110001000001111010011111 0
b1010 8
b00111 9
0;
1?
#79
b01010110001001010001010010000001 =
0?
b01010110001001010001010010000001 C
#80
1#
b01 %
b01 &
b01010110001001010001010010000001 1
b1011 8
b01000 9
1;
1?
#81
0<
b00000000000000000000000000000000 =
0?
0B
b00000000000000000000000000000000 C
#82
0#
b10 %
b10 &
0;
1?
#83
1<
b00010100100011101010100011101101 =
0?
1B
b00010100100011101010100011101101 C
#84
1#
b01 %
b01 &
b00010100100011101010100011101101 2
b1100 8
b01001 9
1;
1?
#85
b01101011010110111101111100000010 =
0?
b01101011010110111101111100000010 C
#86
0#
b10 %
b10 &
b01101011010110111101111100000010 3
b1101 8
b01010 9
0;
1?
#87
0<
b00000000000000000000000000000000 =
1>
0?
0B
b00000000000000000000000000000000 C
1D
#88
1#
b01 %
b01 &
b0100 7
b01001 9
1;
1?
b01001001101010111000111011101100 G
1I
#89
0>
0?
0D
#90
0#
b10 %
b10 &
b01001001101010111000111011101100 :
0;
1?
#91
0?
#92
1#
b01001001101010111000111011101100 $
b01 %
b01 &
1;
1?
#93
1>
0?
1D
#94
0#
b10 %
b10 &
b0101 7
b01000 9
0;
1?
b01001101001110100110101011001000 G
#95
0>
0?
0D
#96
1#
b01 %
b01 &
b01001101001110100110101011001000 :
1;
1?
#97
0?
#98
0#
b10 %
b10 &
0;
1?
#99
1<
b00111110010011011101110101100010 =
0?
1B
b00111110010011011101110101100010 C
#100
1#
b01001101001110100110101011001000 $
b01 %
b01 &
b00111110010011011101110101100010 4
b1110 8
b01001 9
1;
1?
#101
b00000011111010000100100100101100 =
0?
b00000011111010000100100100101100 C
#102
0#
b10 %
b10 &
b00000011111010000100100100101100 5
b1111 8
b01010 9
0;
1?
#103
0<
b00000000000000000000000000000000 =
1>
0?
0B
b00000000000000000000000000000000 C
1D
#104
1#
b01 %
b01 &
b0110 7
b01001 9
1;
1?
b00011011111011000111000110000001 G
#105
1<
b01010001001000101011001111110100 =
0>
0?
1B
b01010001001000101011001111110100 C
0D
#106
0#
b10 %
b10 &
b01010001001000101011001111110100 6
b0000 8
b01010 9
b00011011111011000111000110000001 :
0;
1?
#107
0<
b00000000000000000000000000000000 =
0?
0B
b00000000000000000000000000000000 C
#108
1#
b00011011111011000111000110000001 $
b01 %
b01 &
1;
1?
#109
1>
0?
1D
#110
0#
b10 %
b10 &
b0111 7
b01001 9
0;
1?
b00011111100000000000101011011110 G
0I
#111
1<
b00000001110010110001101110010110 =
0>
0?
1B
b00000001110010110001101110010110 C
0D
#112
1#
b01 %
b01 &
b00000001110010110001101110010110 '
b0001 8
b01010 9
b00011111100000000000101011011110 :
1;
1?
#113
0<
b00000000000000000000000000000000 =
0?
0B
b00000000000000000000000000000000 C
#114
0#
b10 %
b10 &
0;
1?
#115
0?
#116
1#
b00011111100000000000101011011110 $
b01 %
b01 &
1;
1?
#117
0?
#118
0#
b10 %
b10 &
0;
1?
#119
1>
0?
1D
#120
1#
b01 %
b01 &
b1000 7
b01001 9
1;
1?
b00001010111010000111100100000011 G
1I
#121
0>
0?
0D
#122
0#
b10 %
b10 &
b00001010111010000111100100000011 :
0;
1?
#123
1<
b00001001100000010101100101000110 =
0?
1B
b00001001100000010101100101000110 C
#124
1#
b00001010111010000111100100000011 $
b01 %
b01 &
b00001001100000010101100101000110 (
b0010 8
b01010 9
1;
1?
#125
0<
b00000000000000000000000000000000 =
0?
0B
b00000000000000000000000000000000 C
#126
0#
b10 %
b10 &
0;
1?
#127
1<
b00011000001110011011110011011100 =
0?
1B
b00011000001110011011110011011100 C
#128
1#
b01 %
b01 &
b00011000001110011011110011011100 )
b0011 8
b01011 9
1;
1?
#129
0<
b00000000000000000000000000000000 =
0?
0B
b00000000000000000000000000000000 C
#130
0#
b10 %
b10 &
0;
1?
#131
1>
0?
1D
#132
1#
b01 %
b01 &
b1001 7
b01010 9
1;
1?
b01100110110001000001111010011111 G
#133
1<
b01000101001001101010110100011101 =
0>
0?
1B
b01000101001001101010110100011101 C
0D
#134
0#
b10 %
b10 &
b01000101001001101010110100011101 *
b0100 8
b01011 9
b01100110110001000001111010011111 :
0;
1?
#135
b00001100110111011110011110000101 =
0?
b00001100110111011110011110000101 C
#136
1#
b01100110110001000001111010011111 $
b01 %
b01 &
b00001100110111011110011110000101 +
b0101 8
b01100 9
1;
1?
#137
b01000111010100000110111011011001 =
0?
b01000111010100000110111011011001 C
#138
0#
b10 %
b10 &
b01000111010100000110111011011001 ,
b0110 8
b01101 9
0;
1?
#139
b01010000011000011101010100000110 =
0?
b01010000011000011101010100000110 C
#140
1#
b01 %
b01 &
b01010000011000011101010100000110 -
b0111 8
b01110 9
1;
1?
#141
0<
b00000000000000000000000000000000 =
1>
0?
0B
b00000000000000000000000000000000 C
1D
#142
0#
b10 %
b10 &
b1010 7
b01101 9
0;
1?
b01010110001001010001010010000001 G
#143
0>
0?
0D
#144
1#
b01 %
b01 &
b01010110001001010001010010000001 :
1;
1?
#145
0?
#146
0#
b10 %
b10 &
0;
1?
#147
0?
#148
1#
b01010110001001010001010010000001 $
b01 %
b01 &
1;
1?
#149
1>
0?
1D
#150
0#
b10 %
b10 &
b1011 7
b01100 9
0;
1?
b00010100100011101010100011101101 G
#151
0>
0?
0D
#152
1#
b01 %
b01 &
b00010100100011101010100011101101 :
1;
1?
#153
1>
0?
1D
#154
0#
b10 %
b10 &
b1100 7
b01011 9
0;
1?
b01101011010110111101111100000010 G
0I
#155
0?
#156
1#
b00010100100011101010100011101101 $
b01 %
b01 &
b1101 7
b01010 9
b01101011010110111101111100000010 :
1;
1?
b00111110010011011101110101100010 G
#157
0>
0?
0D
#158
0#
b10 %
b10 &
b00111110010011011101110101100010 :
0;
1?
#159
0?
#160
1#
b00111110010011011101110101100010 $
b01 %
b01 &
1;
1?
#161
1>
0?
1D
#162
0#
b10 %
b10 &
b1110 7
b01001 9
0;
1?
b00000011111010000100100100101100 G
#163
0?
#164
1#
b01 %
b01 &
b1111 7
b01000 9
b00000011111010000100100100101100 :
1;
1?
b01010001001000101011001111110100 G
1I
#165
0?
#166
0#
b10 %
b10 &
b0000 7
b00111 9
b01010001001000101011001111110100 :
0;
1?
b00000001110010110001101110010110 G
0I
#167
1<
b00011111011000001110100111111001 =
0>
0?
1B
b00011111011000001110100111111001 C
0D
#168
1#
b01010001001000101011001111110100 $
b01 %
b01 &
b00011111011000001110100111111001 .
b1000 8
b01000 9
b00000001110010110001101110010110 :
1;
1?
#169
0<
b00000000000000000000000000000000 =
1>
0?
0B
b00000000000000000000000000000000 C
1D
#170
0#
b10 %
b10 &
b0001 7
b00111 9
0;
1?
b00001001100000010101100101000110 G
1I
#171
1<
b00101000111000100100001101000000 =
0>
0?
1B
b00101000111000100100001101000000 C
0D
#172
1#
b00000001110010110001101110010110 $
b01 %
b01 &
b00101000111000100100001101000000 /
b1001 8
b01000 9
b00001001100000010101100101000110 :
1;
1?
#173
b00100010111100110111100110011001 =
0?
b00100010111100110111100110011001 C
#174
0#
b10 %
b10 &
b00100010111100110111100110011001 0
b1010 8
b01001 9
0;
1?
#175
0<
b00000000000000000000000000000000 =
1>
0?
0B
b00000000000000000000000000000000 C
1D
#176
1#
b00001001100000010101100101000110 $
b01 %
b01 &
b0010 7
b01000 9
1;
1?
b00011000001110011011110011011100 G
0I
#177
1<
b01011100001000100001001011101010 =
0>
0?
1B
b01011100001000100001001011101010 C
0D
#178
0#
b10 %
b10 &
b01011100001000100001001011101010 1
b1011 8
b01001 9
b00011000001110011011110011011100 :
0;
1?
#179
0<
b00000000000000000000000000000000 =
0?
0B
b00000000000000000000000000000000 C
#180
1#
b00011000001110011011110011011100 $
b01 %
b01 &
1;
1?
#181
0?
#182
0#
b10 %
b10 &
0;
1?
#183
1<
b00100010110101010011101011010010 =
0?
1B
b00100010110101010011101011010010 C
#184
1#
b01 %
b01 &
b00100010110101010011101011010010 2
b1100 8
b01010 9
1;
1?
#185
0<
b00000000000000000000000000000000 =
0?
0B
b00000000000000000000000000000000 C
#186
0#
b10 %
b10 &
0;
1?
#187
0?
#188
1#
b01 %
b01 &
1;
1?
#189
0?
#190
0#
b10 %
b10 &
0;
1?
#191
1<
b00000111011010000010011101110001 =
0?
1B
b00000111011010000010011101110001 C
#192
1#
b01 %
b01 &
b00000111011010000010011101110001 3
b1101 8
b01011 9
1;
1?
#193
b00111011100010100110111001110000 =
0?
b00111011100010100110111001110000 C
#194
0#
b10 %
b10 &
b00111011100010100110111001110000 4
b1110 8
b01100 9
0;
1?
#195
0<
b00000000000000000000000000000000 =
1>
0?
0B
b00000000000000000000000000000000 C
1D
#196
1#
b01 %
b01 &
b0011 7
b01011 9
1;
1?
b01000101001001101010110100011101 G
1I
#197
0>
0?
0D
#198
0#
b10 %
b10 &
b01000101001001101010110100011101 :
0;
1?
#199
0?
#200
1#
b01000101001001101010110100011101 $
b01 %
b01 &
1;
1?
#201
1<
b00011011110010100101000100100110 =
0?
1B
b00011011110010100101000100100110 C
#202
0#
b10 %
b10 &
b00011011110010100101000100100110 5
b1111 8
b01100 9
0;
1?
#203
0<
b00000000000000000000000000000000 =
0?
0B
b00000000000000000000000000000000 C
#204
1#
b01 %
b01 &
1;
1?
#205
1<
b00100001010010110011110001001100 =
0?
1B
b00100001010010110011110001001100 C
#206
0#
b10 %
b10 &
b00100001010010110011110001001100 6
b0000 8
b01101 9
0;
1?
#207
b00000101111101110011100111111011 =
0?
b00000101111101110011100111111011 C
#208
1#
b01 %
b01 &
b00000101111101110011100111111011 '
b0001 8
b01110 9
1;
1?
#209
0<
b00000000000000000000000000000000 =
1>
0?
0B
b00000000000000000000000000000000 C
1D
#210
0#
b10 %
b10 &
b0100 7
b01101 9
0;
1?
b00001100110111011110011110000101 G
#211
0>
0?
0D
#212
1#
b01 %
b01 &
b00001100110111011110011110000101 :
1;
1?
#213
1<
b01001111011101110111001011010101 =
0?
1B
b01001111011101110111001011010101 C
#214
0#
b10 %
b10 &
b01001111011101110111001011010101 (
b0010 8
b01110 9
0;
1?
#215
b00011101010101000011101010001000 =
0?
b00011101010101000011101010001000 C
#216
1#
b00001100110111011110011110000101 $
b01 %
b01 &
b00011101010101000011101010001000 )
b0011 8
b01111 9
1;
1?
#217
0<
b00000000000000000000000000000000 =
0?
0B
b00000000000000000000000000000000 C
#218
0#
b10 %
b10 &
0;
1?
#219
0?
#220
1#
b01 %
b01 &
1;
1?
#221
1>
0?
1D
#222
0#
b10 %
b10 &
b0101 7
b01110 9
0;
1?
b01000111010100000110111011011001 G
0I
#223
1<
b00011100111111111101111111100110 =
0>
0?
1B
b00011100111111111101111111100110 C
0D
#224
1#
b01 %
b01 &
b00011100111111111101111111100110 *
b0100 8
b01111 9
b01000111010100000110111011011001 :
1;
1?
#225
b01000001000101001110010101000001 =
0?
b01000001000101001110010101000001 C
#226
0#
b10 %
b10 &
b01000001000101001110010101000001 +
b0101 8
b10000 9
0;
1?
1E
#227
0<
b00000000000000000000000000000000 =
0?
0B
b00000000000000000000000000000000 C
#228
1#
b01000111010100000110111011011001 $
b01 %
b01 &
1;
1?
#229
1>
0?
1D
#230
0#
b10 %
b10 &
b0110 7
b01111 9
0;
1?
0E
b01010000011000011101010100000110 G
#231
0>
0?
0D
#232
1#
b01 %
b01 &
b01010000011000011101010100000110 :
1;
1?
#233
1<
b01001110011110110001011000110011 =
0?
1B
b01001110011110110001011000110011 C
#234
0#
b10 %
b10 &
b01001110011110110001011000110011 ,
b0110 8
b10000 9
0;
1?
1E
#235
0<
b00000000000000000000000000000000 =
0?
0B
b00000000000000000000000000000000 C
#236
1#
b01010000011000011101010100000110 $
b01 %
b01 &
1;
1?
#237
0?
#238
0#
b10 %
b10 &
0;
1?
#239
1>
0?
1D
#240
1#
b01 %
b01 &
b0111 7
b01111 9
1;
1?
0E
b00011111011000001110100111111001 G
#241
1<
b00101010001111001111100011101100 =
0>
0?
1B
b00101010001111001111100011101100 C
0D
#242
0#
b10 %
b10 &
b00101010001111001111100011101100 -
b0111 8
b10000 9
b00011111011000001110100111111001 :
0;
1?
1E
#243
0<
b00000000000000000000000000000000 =
0?
0B
b00000000000000000000000000000000 C
#244
1#
b00011111011000001110100111111001 $
b01 %
b01 &
1;
1?
#245
1>
0?
1D
#246
0#
b10 %
b10 &
b1000 7
b01111 9
0;
1?
0E
b00101000111000100100001101000000 G
#247
0?
#248
1#
b01 %
b01 &
b1001 7
b01110 9
b00101000111000100100001101000000 :
1;
1?
b00100010111100110111100110011001 G
1I
#249
0?
#250
0#
b10 %
b10 &
b1010 7
b01101 9
b00100010111100110111100110011001 :
0;
1?
b01011100001000100001001011101010 G
#251
1<
b01101011001101001110010010110010 =
0>
0?
1B
b01101011001101001110010010110010 C
0D
#252
1#
b00100010111100110111100110011001 $
b01 %
b01 &
b01101011001101001110010010110010 .
b1000 8
b01110 9
b01011100001000100001001011101010 :
1;
1?
#253
0<
b00000000000000000000000000000000 =
0?
0B
b00000000000000000000000000000000 C
#254
0#
b10 %
b10 &
0;
1?
#255
0?
#256
1#
b01011100001000100001001011101010 $
b01 %
b01 &
1;
1?
#257
1<
b00010011111111101000001001011001 =
0?
1B
b00010011111111101000001001011001 C
#258
0#
b10 %
b10 &
b00010011111111101000001001011001 /
b1001 8
b01111 9
0;
1?
#259
b00100111001101110000001111110111 =
0?
b00100111001101110000001111110111 C
#260
1#
b01 %
b01 &
b00100111001101110000001111110111 0
b1010 8
b10000 9
1;
1?
1E
#261
0<
b00000000000000000000000000000000 =
1>
0?
0B
b00000000000000000000000000000000 C
1D
#262
0#
b10 %
b10 &
b1011 7
b01111 9
0;
1?
0E
b00100010110101010011101011010010 G
#263
0>
0?
0D
#264
1#
b01 %
b01 &
b00100010110101010011101011010010 :
1;
1?
#265
0?
#266
0#
b10 %
b10 &
0;
1?
#267
0?
#268
1#
b00100010110101010011101011010010 $
b01 %
b01 &
1;
1?
#269
0?
#270
0#
b10 %
b10 &
0;
1?
#271
0?
#272
1#
b01 %
b01 &
1;
1?
#273
1<
b01011110000010010101111011101000 =
0?
1B
b01011110000010010101111011101000 C
#274
0#
b10 %
b10 &
b01011110000010010101111011101000 1
b1011 8
b10000 9
0;
1?
1E
#275
0<
b00000000000000000000000000000000 =
0?
0B
b00000000000000000000000000000000 C
#276
1#
b01 %
b01 &
1;
1?
#277
1>
0?
1D
#278
0#
b10 %
b10 &
b1100 7
b01111 9
0;
1?
0E
b00000111011010000010011101110001 G
0I
#279
0>
0?
0D
#280
1#
b01 %
b01 &
b00000111011010000010011101110001 :
1;
1?
#281
1<
b00001111001100100111101110001110 =
0?
1B
b00001111001100100111101110001110 C
#282
0#
b10 %
b10 &
b00001111001100100111101110001110 2
b1100 8
b10000 9
0;
1?
1E
#283
0<
b00000000000000000000000000000000 =
1>
0?
0B
b00000000000000000000000000000000 C
1D
#284
1#
b00000111011010000010011101110001 $
b01 %
b01 &
b1101 7
b01111 9
1;
1?
0E
b00111011100010100110111001110000 G
#285
1<
b01101001111110000000000110100110 =
0>
0?
1B
b01101001111110000000000110100110 C
0D
#286
0#
b10 %
b10 &
b01101001111110000000000110100110 3
b1101 8
b10000 9
b00111011100010100110111001110000 :
0;
1?
1E
#287
0<
b00000000000000000000000000000000 =
0?
0B
b00000000000000000000000000000000 C
#288
1#
b00111011100010100110111001110000 $
b01 %
b01 &
1;
1?
#289
0?
#290
0#
b10 %
b10 &
0;
1?
#291
1>
0?
1D
#292
1#
b01 %
b01 &
b1110 7
b01111 9
1;
1?
0E
b00011011110010100101000100100110 G
#293
1<
b00011100000100011100010010011111 =
0>
0?
1B
b00011100000100011100010010011111 C
0D
#294
0#
b10 %
b10 &
b00011100000100011100010010011111 4
b1110 8
b10000 9
b00011011110010100101000100100110 :
0;
1?
1E
#295
0<
b00000000000000000000000000000000 =
1>
0?
0B
b00000000000000000000000000000000 C
1D
#296
1#
b00011011110010100101000100100110 $
b01 %
b01 &
b1111 7
b01111 9
1;
1?
0E
b00100001010010110011110001001100 G
1I
#297
1<
b01001000010110111000111010010011 =
0>
0?
1B
b01001000010110111000111010010011 C
0D
#298
0#
b10 %
b10 &
b01001000010110111000111010010011 5
b1111 8
b10000 9
b00100001010010110011110001001100 :
0;
1?
1E
#299
0<
b00000000000000000000000000000000 =
1>
0?
0B
b00000000000000000000000000000000 C
1D
#300
1#
b00100001010010110011110001001100 $
b01 %
b01 &
b0000 7
b01111 9
1;
1?
0E
b00000101111101110011100111111011 G
0I
#301
1<
b01101111100100101001001010001010 =
0>
0?
1B
b01101111100100101001001010001010 C
0D
#302
0#
b10 %
b10 &
b01101111100100101001001010001010 6
b0000 8
b10000 9
b00000101111101110011100111111011 :
0;
1?
1E
#303
0<
b00000000000000000000000000000000 =
1>
0?
0B
b00000000000000000000000000000000 C
1D
#304
1#
b00000101111101110011100111111011 $
b01 %
b01 &
b0001 7
b01111 9
1;
1?
0E
b01001111011101110111001011010101 G
#305
1<
b00010001011000010110011010011111 =
0>
0?
1B
b00010001011000010110011010011111 C
0D
#306
0#
b10 %
b10 &
b00010001011000010110011010011111 '
b0001 8
b10000 9
b01001111011101110111001011010101 :
0;
1?
1E
#307
0<
b00000000000000000000000000000000 =
1>
0?
0B
b00000000000000000000000000000000 C
1D
#308
1#
b01001111011101110111001011010101 $
b01 %
b01 &
b0010 7
b01111 9
1;
1?
0E
b00011101010101000011101010001000 G
1I
#309
0?
#310
0#
b10 %
b10 &
b0011 7
b01110 9
b00011101010101000011101010001000 :
0;
1?
b00011100111111111101111111100110 G
#311
1<
b01111001010100111100010000100110 =
0>
0?
1B
b01111001010100111100010000100110 C
0D
#312
1#
b00011101010101000011101010001000 $
b01 %
b01 &
b01111001010100111100010000100110 (
b0010 8
b01111 9
b00011100111111111101111111100110 :
1;
1?
#313
0<
b00000000000000000000000000000000 =
0?
0B
b00000000000000000000000000000000 C
#314
0#
b10 %
b10 &
0;
1?
#315
1<
b01010000101001111110000110000010 =
0?
1B
b01010000101001111110000110000010 C
#316
1#
b00011100111111111101111111100110 $
b01 %
b01 &
b01010000101001111110000110000010 )
b0011 8
b10000 9
1;
1?
1E
#317
0<
b00000000000000000000000000000000 =
0?
0B
b00000000000000000000000000000000 C
#318
0#
b10 %
b10 &
0;
1?
#319
0?
#320
1#
b01 %
b01 &
1;
1?
#321
0?
#322
0#
b10 %
b10 &
0;
1?
#323
0?
#324
1#
b01 %
b01 &
1;
1?
#325
1>
0?
1D
#326
0#
b10 %
b10 &
b0100 7
b01111 9
0;
1?
0E
b01000001000101001110010101000001 G
#327
0>
0?
0D
#328
1#
b01 %
b01 &
b01000001000101001110010101000001 :
1;
1?
#329
1>
0?
1D
#330
0#
b10 %
b10 &
b0101 7
b01110 9
0;
1?
b01001110011110110001011000110011 G
#331
0>
0?
0D
#332
1#
b01000001000101001110010101000001 $
b01 %
b01 &
b01001110011110110001011000110011 :
1;
1?
#333
1<
b01100110101101011000000100110010 =
0?
1B
b01100110101101011000000100110010 C
#334
0#
b10 %
b10 &
b01100110101101011000000100110010 *
b0100 8
b01111 9
0;
1?
#335
0<
b00000000000000000000000000000000 =
0?
0B
b00000000000000000000000000000000 C
#336
1#
b01001110011110110001011000110011 $
b01 %
b01 &
1;
1?
#337
1>
0?
1D
#338
0#
b10 %
b10 &
b0110 7
b01110 9
0;
1?
b00101010001111001111100011101100 G
#339
0>
0?
0D
#340
1#
b01 %
b01 &
b00101010001111001111100011101100 :
1;
1?
#341
1<
b01110111101101011000100110110100 =
0?
1B
b01110111101101011000100110110100 C
#342
0#
b10 %
b10 &
b01110111101101011000100110110100 +
b0101 8
b01111 9
0;
1?
#343
b00100100010110010010100010010000 =
0?
b00100100010110010010100010010000 C
#344
1#
b00101010001111001111100011101100 $
b01 %
b01 &
b00100100010110010010100010010000 ,
b0110 8
b10000 9
1;
1?
1E
#345
0<
b00000000000000000000000000000000 =
1>
0?
0B
b00000000000000000000000000000000 C
1D
#346
0#
b10 %
b10 &
b0111 7
b01111 9
0;
1?
0E
b01101011001101001110010010110010 G
0I
#347
1<
b00000110100110111101000111111001 =
0>
0?
1B
b00000110100110111101000111111001 C
0D
