hw/outputs/sim.vcd
$version Generated by VerilatedVcd $end
$date Thu Nov 27 02:01:23 2025
 $end
$timescale   1ps $end

 $scope module TOP $end
  $var wire  1 ? clk $end
  $var wire 32 G data_out [31:0] $end
  $var wire  1 E full $end
  $var wire 32 C host_data_in [31:0] $end
  $var wire  1 A host_mode $end
  $var wire  1 D host_pop_req $end
  $var wire  1 B host_push_req $end
  $var wire  1 @ reset $end
  $var wire  1 H tb_done $end
  $var wire  1 F valid_out $end
  $scope module tb_task_queue $end
   $var wire  2 % arb_grant_out [1:0] $end
   $var wire  2 & arb_served_bank [1:0] $end
   $var wire  1 ? clk $end
   $var wire 32 = data_in [31:0] $end
   $var wire 32 G data_out [31:0] $end
   $var wire 32 $ dist_out_data [31:0] $end
   $var wire  1 # dist_out_valid $end
   $var wire  1 E full $end
   $var wire 32 C host_data_in [31:0] $end
   $var wire  1 A host_mode $end
   $var wire  1 D host_pop_req $end
   $var wire  1 B host_push_req $end
   $var wire  1 > pop_req $end
   $var wire  1 < push_req $end
   $var wire  1 @ reset $end
   $var wire  1 H tb_done $end
   $var wire  1 F valid_out $end
   $scope module arbiter $end
    $var wire  1 ? clk $end
    $var wire  1 I dummy_bit $end
    $var wire  2 % grant_out [1:0] $end
    $var wire 32 G in_data [31:0] $end
    $var wire  1 F in_valid $end
    $var wire  1 @ reset $end
    $var wire  1 ; rr $end
    $var wire  2 & served_bank [1:0] $end
   $upscope $end
   $scope module distributor $end
    $var wire 32 $ buffered_data [31:0] $end
    $var wire  1 # buffered_valid $end
    $var wire  1 ? clk $end
    $var wire  1 M consumer_ready $end
    $var wire 32 G in_data [31:0] $end
    $var wire 32 : in_data_reg [31:0] $end
    $var wire  1 F in_valid $end
    $var wire 32 $ out_data [31:0] $end
    $var wire  1 # out_valid $end
    $var wire  1 @ reset $end
   $upscope $end
   $scope module dut_queue $end
    $var wire 32 J DEPTH [31:0] $end
    $var wire 32 L PTR_W [31:0] $end
    $var wire 32 K WIDTH [31:0] $end
    $var wire  1 ? clk $end
    $var wire  5 9 count [4:0] $end
    $var wire 32 = data_in [31:0] $end
    $var wire 32 G data_out [31:0] $end
    $var wire  1 E full $end
    $var wire  4 7 head [3:0] $end
    $var wire 32 ' mem(0) [31:0] $end
    $var wire 32 ( mem(1) [31:0] $end
    $var wire 32 1 mem(10) [31:0] $end
    $var wire 32 2 mem(11) [31:0] $end
    $var wire 32 3 mem(12) [31:0] $end
    $var wire 32 4 mem(13) [31:0] $end
    $var wire 32 5 mem(14) [31:0] $end
    $var wire 32 6 mem(15) [31:0] $end
    $var wire 32 ) mem(2) [31:0] $end
    $var wire 32 * mem(3) [31:0] $end
    $var wire 32 + mem(4) [31:0] $end
    $var wire 32 , mem(5) [31:0] $end
    $var wire 32 - mem(6) [31:0] $end
    $var wire 32 . mem(7) [31:0] $end
    $var wire 32 / mem(8) [31:0] $end
    $var wire 32 0 mem(9) [31:0] $end
    $var wire  1 > pop_req $end
    $var wire  1 < push_req $end
    $var wire  1 @ reset $end
    $var wire  4 8 tail [3:0] $end
    $var wire  1 F valid_out $end
   $upscope $end
  $upscope $end
 $upscope $end
$enddefinitions $end


#0
0#
b00000000000000000000000000000000 $
b00 %
b00 &
b00000000000000000000000000000000 '
b00000000000000000000000000000000 (
b00000000000000000000000000000000 )
b00000000000000000000000000000000 *
b00000000000000000000000000000000 +
b00000000000000000000000000000000 ,
b00000000000000000000000000000000 -
b00000000000000000000000000000000 .
b00000000000000000000000000000000 /
b00000000000000000000000000000000 0
b00000000000000000000000000000000 1
b00000000000000000000000000000000 2
b00000000000000000000000000000000 3
b00000000000000000000000000000000 4
b00000000000000000000000000000000 5
b00000000000000000000000000000000 6
b0000 7
b0000 8
b00000 9
b00000000000000000000000000000000 :
0;
0<
b00000000000000000000000000000000 =
0>
0?
1@
1A
0B
b00000000000000000000000000000000 C
0D
0E
0F
b00000000000000000000000000000000 G
0H
0I
b00000000000000000000000000010000 J
b00000000000000000000000000100000 K
b00000000000000000000000000000100 L
1M
#1
#2
1?
#3
0?
#4
1?
#5
0?
#6
1?
#7
0?
#8
1?
#9
0?
0@
#10
1?
#11
1<
b10100101101001011010010110100101 =
0?
1B
b10100101101001011010010110100101 C
#12
b10100101101001011010010110100101 '
b0001 8
b00001 9
1?
1F
b10100101101001011010010110100101 G
#13
b11011110101011011011111011101111 =
0?
b11011110101011011011111011101111 C
#14
1#
b01 %
b01 &
b11011110101011011011111011101111 (
b0010 8
b00010 9
b10100101101001011010010110100101 :
1;
1?
#15
b00000001001000110100010101100111 =
0?
b00000001001000110100010101100111 C
#16
0#
b10 %
b10 &
b00000001001000110100010101100111 )
b0011 8
b00011 9
0;
1?
#17
b10001001101010111100110111101111 =
0?
b10001001101010111100110111101111 C
#18
1#
b10100101101001011010010110100101 $
b01 %
b01 &
b10001001101010111100110111101111 *
b0100 8
b00100 9
1;
1?
#19
0<
b00000000000000000000000000000000 =
1>
0?
0B
b00000000000000000000000000000000 C
1D
#20
0#
b10 %
b10 &
b0001 7
b00011 9
0;
1?
b11011110101011011011111011101111 G
#21
0?
#22
1#
b01 %
b01 &
b0010 7
b00010 9
b11011110101011011011111011101111 :
1;
1?
b00000001001000110100010101100111 G
#23
1<
b11001010111111101011101010111110 =
0>
0?
1B
b11001010111111101011101010111110 C
0D
#24
0#
b10 %
b10 &
b11001010111111101011101010111110 +
b0101 8
b00011 9
b00000001001000110100010101100111 :
0;
1?
#25
b00001011101011011111000000001101 =
0?
b00001011101011011111000000001101 C
#26
1#
b00000001001000110100010101100111 $
b01 %
b01 &
b00001011101011011111000000001101 ,
b0110 8
b00100 9
1;
1?
#27
0<
b00000000000000000000000000000000 =
1>
0?
0B
b00000000000000000000000000000000 C
1D
#28
0#
b10 %
b10 &
b0011 7
b00011 9
0;
1?
b10001001101010111100110111101111 G
#29
0?
#30
1#
b01 %
b01 &
b0100 7
b00010 9
b10001001101010111100110111101111 :
1;
1?
b11001010111111101011101010111110 G
#31
0?
#32
0#
b10 %
b10 &
b0101 7
b00001 9
b11001010111111101011101010111110 :
0;
1?
b00001011101011011111000000001101 G
1I
#33
0?
#34
1#
b11001010111111101011101010111110 $
b01 %
b01 &
b0110 7
b00000 9
b00001011101011011111000000001101 :
1;
1?
0F
b00000000000000000000000000000000 G
0I
#35
0>
0?
1@
0D
#36
0#
b00000000000000000000000000000000 $
b00 %
b00 &
b0000 7
b0000 8
b00000000000000000000000000000000 :
0;
1?
b10100101101001011010010110100101 G
#37
0?
#38
1?
#39
0?
#40
1?
#41
0?
#42
1?
#43
0?
0@
#44
b10100101101001011010010110100101 :
1?
#45
1<
b00001111000100011111000110110001 =
0?
1B
b00001111000100011111000110110001 C
#46
b00001111000100011111000110110001 '
b0001 8
b00001 9
1?
1F
b00001111000100011111000110110001 G
1I
#47
0<
b00000000000000000000000000000000 =
1>
0?
0B
b00000000000000000000000000000000 C
1D
#48
1#
b10100101101001011010010110100101 $
b01 %
b01 &
b0001 7
b00000 9
b00001111000100011111000110110001 :
1;
1?
0F
b11011110101011011011111011101111 G
0I
#49
0>
0?
0D
#50
0#
b00 %
b00 &
b11011110101011011011111011101111 :
1?
#51
1<
b00000001110111101101010110001110 =
0?
1B
b00000001110111101101010110001110 C
#52
b00000001110111101101010110001110 (
b0010 8
b00001 9
1?
1F
b00000001110111101101010110001110 G
#53
0<
b00000000000000000000000000000000 =
1>
0?
0B
b00000000000000000000000000000000 C
1D
#54
1#
b11011110101011011011111011101111 $
b10 %
b10 &
b0010 7
b00000 9
b00000001110111101101010110001110 :
0;
1?
0F
b00000001001000110100010101100111 G
#55
1<
b00100010111110111001011001101001 =
0>
0?
1B
b00100010111110111001011001101001 C
0D
#56
0#
b00 %
b00 &
b00100010111110111001011001101001 )
b0011 8
b00001 9
b00000001001000110100010101100111 :
1?
1F
b00100010111110111001011001101001 G
1I
#57
0<
b00000000000000000000000000000000 =
1>
0?
0B
b00000000000000000000000000000000 C
1D
#58
1#
b00000001001000110100010101100111 $
b01 %
b01 &
b0011 7
b00000 9
b00100010111110111001011001101001 :
1;
1?
0F
b10001001101010111100110111101111 G
0I
#59
1<
b00000001111101011101010110000011 =
0>
0?
1B
b00000001111101011101010110000011 C
0D
#60
0#
b00 %
b00 &
b00000001111101011101010110000011 *
b0100 8
b00001 9
b10001001101010111100110111101111 :
1?
1F
b00000001111101011101010110000011 G
1I
#61
b01011000100001010011111101100010 =
0?
b01011000100001010011111101100010 C
#62
1#
b10001001101010111100110111101111 $
b10 %
b10 &
b01011000100001010011111101100010 +
b0101 8
b00010 9
b00000001111101011101010110000011 :
0;
1?
#63
0<
b00000000000000000000000000000000 =
0?
0B
b00000000000000000000000000000000 C
#64
0#
b01 %
b01 &
1;
1?
#65
1<
b00000100101001100110010111010011 =
0?
1B
b00000100101001100110010111010011 C
#66
1#
b00000001111101011101010110000011 $
b10 %
b10 &
b00000100101001100110010111010011 ,
b0110 8
b00011 9
0;
1?
#67
b00011011011111000000100011110010 =
0?
b00011011011111000000100011110010 C
#68
0#
b01 %
b01 &
b00011011011111000000100011110010 -
b0111 8
b00100 9
1;
1?
#69
0<
b00000000000000000000000000000000 =
1>
0?
0B
b00000000000000000000000000000000 C
1D
#70
1#
b10 %
b10 &
b0100 7
b00011 9
0;
1?
b01011000100001010011111101100010 G
#71
0>
0?
0D
#72
0#
b01 %
b01 &
b01011000100001010011111101100010 :
1;
1?
#73
1<
b00011001100001011111111010001001 =
0?
1B
b00011001100001011111111010001001 C
#74
1#
b01011000100001010011111101100010 $
b10 %
b10 &
b00011001100001011111111010001001 .
b1000 8
b00100 9
0;
1?
#75
0<
b00000000000000000000000000000000 =
0?
0B
b00000000000000000000000000000000 C
#76
0#
b01 %
b01 &
1;
1?
#77
0?
#78
1#
b10 %
b10 &
0;
1?
#79
0?
#80
0#
b01 %
b01 &
1;
1?
#81
0?
#82
1#
b10 %
b10 &
0;
1?
#83
0?
#84
0#
b01 %
b01 &
1;
1?
#85
0?
#86
1#
b10 %
b10 &
0;
1?
#87
1<
b01011100011001001111110111111110 =
0?
1B
b01011100011001001111110111111110 C
#88
0#
b01 %
b01 &
b01011100011001001111110111111110 /
b1001 8
b00101 9
1;
1?
#89
0<
b00000000000000000000000000000000 =
1>
0?
0B
b00000000000000000000000000000000 C
1D
#90
1#
b10 %
b10 &
b0101 7
b00100 9
0;
1?
b00000100101001100110010111010011 G
0I
#91
0>
0?
0D
#92
0#
b01 %
b01 &
b00000100101001100110010111010011 :
1;
1?
#93
1<
b00101110101111110001100110110110 =
0?
1B
b00101110101111110001100110110110 C
#94
1#
b00000100101001100110010111010011 $
b10 %
b10 &
b00101110101111110001100110110110 0
b1010 8
b00101 9
0;
1?
#95
0<
b00000000000000000000000000000000 =
1>
0?
0B
b00000000000000000000000000000000 C
1D
#96
0#
b01 %
b01 &
b0110 7
b00100 9
1;
1?
b00011011011111000000100011110010 G
1I
#97
0?
#98
1#
b10 %
b10 &
b0111 7
b00011 9
b00011011011111000000100011110010 :
0;
1?
b00011001100001011111111010001001 G
0I
#99
0?
#100
0#
b01 %
b01 &
b1000 7
b00010 9
b00011001100001011111111010001001 :
1;
1?
b01011100011001001111110111111110 G
1I
#101
0?
#102
1#
b00011001100001011111111010001001 $
b10 %
b10 &
b1001 7
b00001 9
b01011100011001001111110111111110 :
0;
1?
b00101110101111110001100110110110 G
#103
0?
#104
0#
b01 %
b01 &
b1010 7
b00000 9
b00101110101111110001100110110110 :
1;
1?
0F
b00000000000000000000000000000000 G
0I
#105
0>
0?
0D
#106
b00 %
b00 &
b00000000000000000000000000000000 :
1?
#107
0?
#108
1?
#109
1<
b01110000011010100100001110000001 =
0?
1B
b01110000011010100100001110000001 C
#110
b01110000011010100100001110000001 1
b1011 8
b00001 9
1?
1F
b01110000011010100100001110000001 G
#111
0<
b00000000000000000000000000000000 =
0?
0B
b00000000000000000000000000000000 C
#112
1#
b00000000000000000000000000000000 $
b10 %
b10 &
b01110000011010100100001110000001 :
0;
1?
#113
0?
#114
0#
b01 %
b01 &
1;
1?
#115
1>
0?
1D
#116
1#
b01110000011010100100001110000001 $
b10 %
b10 &
b1011 7
b00000 9
0;
1?
0F
b00000000000000000000000000000000 G
#117
1<
b01100010011011010011011010011111 =
0>
0?
1B
b01100010011011010011011010011111 C
0D
#118
0#
b00 %
b00 &
b01100010011011010011011010011111 2
b1100 8
b00001 9
b00000000000000000000000000000000 :
1?
1F
b01100010011011010011011010011111 G
#119
0<
b00000000000000000000000000000000 =
0?
0B
b00000000000000000000000000000000 C
#120
1#
b00000000000000000000000000000000 $
b01 %
b01 &
b01100010011011010011011010011111 :
1;
1?
#121
1<
b00000101010100101010000111000010 =
0?
1B
b00000101010100101010000111000010 C
#122
0#
b10 %
b10 &
b00000101010100101010000111000010 3
b1101 8
b00010 9
0;
1?
#123
0<
b00000000000000000000000000000000 =
0?
0B
b00000000000000000000000000000000 C
#124
1#
b01100010011011010011011010011111 $
b01 %
b01 &
1;
1?
#125
1<
b01000110110100100011101000010110 =
0?
1B
b01000110110100100011101000010110 C
#126
0#
b10 %
b10 &
b01000110110100100011101000010110 4
b1110 8
b00011 9
0;
1?
#127
0<
b00000000000000000000000000000000 =
1>
0?
0B
b00000000000000000000000000000000 C
1D
#128
1#
b01 %
b01 &
b1100 7
b00010 9
1;
1?
b00000101010100101010000111000010 G
1I
#129
0>
0?
0D
#130
0#
b10 %
b10 &
b00000101010100101010000111000010 :
0;
1?
#131
1>
0?
1D
#132
1#
b00000101010100101010000111000010 $
b01 %
b01 &
b1101 7
b00001 9
1;
1?
b01000110110100100011101000010110 G
0I
#133
1<
b01000111001010101110101101110010 =
0>
0?
1B
b01000111001010101110101101110010 C
0D
#134
0#
b10 %
b10 &
b01000111001010101110101101110010 5
b1111 8
b00010 9
b01000110110100100011101000010110 :
0;
1?
#135
0<
b00000000000000000000000000000000 =
1>
0?
0B
b00000000000000000000000000000000 C
1D
#136
1#
b01000110110100100011101000010110 $
b01 %
b01 &
b1110 7
b00001 9
1;
1?
b01000111001010101110101101110010 G
1I
#137
0?
#138
0#
b10 %
b10 &
b1111 7
b00000 9
b01000111001010101110101101110010 :
0;
1?
0F
b00000000000000000000000000000000 G
0I
#139
1<
b01101110000101011111100010011000 =
0>
0?
1B
b01101110000101011111100010011000 C
0D
#140
b00 %
b00 &
b01101110000101011111100010011000 6
b0000 8
b00001 9
b00000000000000000000000000000000 :
1?
1F
b01101110000101011111100010011000 G
#141
0<
b00000000000000000000000000000000 =
0?
0B
b00000000000000000000000000000000 C
#142
1#
b00000000000000000000000000000000 $
b01 %
b01 &
b01101110000101011111100010011000 :
1;
1?
#143
1>
0?
1D
#144
0#
b10 %
b10 &
b0000 7
b00000 9
0;
1?
0F
b00001111000100011111000110110001 G
1I
#145
0>
0?
0D
#146
b00 %
b00 &
b00001111000100011111000110110001 :
1?
#147
1<
b00100100001010110100101111000010 =
0?
1B
b00100100001010110100101111000010 C
#148
b00100100001010110100101111000010 '
b0001 8
b00001 9
1?
1F
b00100100001010110100101111000010 G
#149
0<
b00000000000000000000000000000000 =
1>
0?
0B
b00000000000000000000000000000000 C
1D
#150
1#
b00001111000100011111000110110001 $
b01 %
b01 &
b0001 7
b00000 9
b00100100001010110100101111000010 :
1;
1?
0F
b00000001110111101101010110001110 G
0I
#151
1<
b01111000110111011001000111011010 =
0>
0?
1B
b01111000110111011001000111011010 C
0D
#152
0#
b00 %
b00 &
b01111000110111011001000111011010 (
b0010 8
b00001 9
b00000001110111101101010110001110 :
1?
1F
b01111000110111011001000111011010 G
#153
0<
b00000000000000000000000000000000 =
0?
0B
b00000000000000000000000000000000 C
#154
1#
b00000001110111101101010110001110 $
b10 %
b10 &
b01111000110111011001000111011010 :
0;
1?
#155
0?
#156
0#
b01 %
b01 &
1;
1?
#157
0?
#158
1#
b01111000110111011001000111011010 $
b10 %
b10 &
0;
1?
#159
1>
0?
1D
#160
0#
b01 %
b01 &
b0010 7
b00000 9
1;
1?
0F
b00100010111110111001011001101001 G
1I
#161
1<
b00001010010100000110111110111011 =
0>
0?
1B
b00001010010100000110111110111011 C
0D
#162
b00 %
b00 &
b00001010010100000110111110111011 )
b0011 8
b00001 9
b00100010111110111001011001101001 :
1?
1F
b00001010010100000110111110111011 G
0I
#163
0<
b00000000000000000000000000000000 =
0?
0B
b00000000000000000000000000000000 C
#164
1#
b00100010111110111001011001101001 $
b10 %
b10 &
b00001010010100000110111110111011 :
0;
1?
#165
0?
#166
0#
b01 %
b01 &
1;
1?
#167
1>
0?
1D
#168
1#
b00001010010100000110111110111011 $
b10 %
b10 &
b0011 7
b00000 9
0;
1?
0F
b00000001111101011101010110000011 G
1I
#169
1<
b00101110101111011010010100101011 =
0>
0?
1B
b00101110101111011010010100101011 C
0D
#170
0#
b00 %
b00 &
b00101110101111011010010100101011 *
b0100 8
b00001 9
b00000001111101011101010110000011 :
1?
1F
b00101110101111011010010100101011 G
0I
#171
0<
b00000000000000000000000000000000 =
1>
0?
0B
b00000000000000000000000000000000 C
1D
#172
1#
b00000001111101011101010110000011 $
b01 %
b01 &
b0100 7
b00000 9
b00101110101111011010010100101011 :
1;
1?
0F
b01011000100001010011111101100010 G
1I
#173
0>
0?
0D
#174
0#
b00 %
b00 &
b01011000100001010011111101100010 :
1?
#175
1<
b01011010001011100110001111001100 =
0?
1B
b01011010001011100110001111001100 C
#176
b01011010001011100110001111001100 +
b0101 8
b00001 9
1?
1F
b01011010001011100110001111001100 G
0I
#177
b00110010101100000001111011011011 =
0?
b00110010101100000001111011011011 C
#178
1#
b01011000100001010011111101100010 $
b10 %
b10 &
b00110010101100000001111011011011 ,
b0110 8
b00010 9
b01011010001011100110001111001100 :
0;
1?
#179
0<
b00000000000000000000000000000000 =
0?
0B
b00000000000000000000000000000000 C
#180
0#
b01 %
b01 &
1;
1?
#181
0?
#182
1#
b01011010001011100110001111001100 $
b10 %
b10 &
0;
1?
#183
1<
b00110001011001101001111001000111 =
0?
1B
b00110001011001101001111001000111 C
#184
0#
b01 %
b01 &
b00110001011001101001111001000111 -
b0111 8
b00011 9
1;
1?
#185
b01010000100010111010110100000011 =
0?
b01010000100010111010110100000011 C
#186
1#
b10 %
b10 &
b01010000100010111010110100000011 .
b1000 8
b00100 9
0;
1?
#187
b00100111101000010110110110000010 =
0?
b00100111101000010110110110000010 C
#188
0#
b01 %
b01 &
b00100111101000010110110110000010 /
b1001 8
b00101 9
1;
1?
#189
0<
b00000000000000000000000000000000 =
1>
0?
0B
b00000000000000000000000000000000 C
1D
#190
1#
b10 %
b10 &
b0101 7
b00100 9
0;
1?
b00110010101100000001111011011011 G
#191
0>
0?
0D
#192
0#
b01 %
b01 &
b00110010101100000001111011011011 :
1;
1?
#193
0?
#194
1#
b00110010101100000001111011011011 $
b10 %
b10 &
0;
1?
#195
1<
b01101101001101011000011100110010 =
0?
1B
b01101101001101011000011100110010 C
#196
0#
b01 %
b01 &
b01101101001101011000011100110010 0
b1010 8
b00101 9
1;
1?
#197
0<
b00000000000000000000000000000000 =
0?
0B
b00000000000000000000000000000000 C
#198
1#
b10 %
b10 &
0;
1?
#199
0?
#200
0#
b01 %
b01 &
1;
1?
#201
0?
#202
1#
b10 %
b10 &
0;
1?
#203
1<
b01000100101110000000001100110110 =
0?
1B
b01000100101110000000001100110110 C
#204
0#
b01 %
b01 &
b01000100101110000000001100110110 1
b1011 8
b00110 9
1;
1?
#205
b00011110001111001001111101110000 =
0?
b00011110001111001001111101110000 C
#206
1#
b10 %
b10 &
b00011110001111001001111101110000 2
b1100 8
b00111 9
0;
1?
#207
b00010001110100111111000100000101 =
0?
b00010001110100111111000100000101 C
#208
0#
b01 %
b01 &
b00010001110100111111000100000101 3
b1101 8
b01000 9
1;
1?
#209
0<
b00000000000000000000000000000000 =
0?
0B
b00000000000000000000000000000000 C
#210
1#
b10 %
b10 &
0;
1?
#211
0?
#212
0#
b01 %
b01 &
1;
1?
#213
0?
#214
1#
b10 %
b10 &
0;
1?
#215
0?
#216
0#
b01 %
b01 &
1;
1?
#217
1>
0?
1D
#218
1#
b10 %
b10 &
b0110 7
b00111 9
0;
1?
b00110001011001101001111001000111 G
#219
1<
b01111100011110101000100100011001 =
0>
0?
1B
b01111100011110101000100100011001 C
0D
#220
0#
b01 %
b01 &
b01111100011110101000100100011001 4
b1110 8
b01000 9
b00110001011001101001111001000111 :
1;
1?
#221
0<
b00000000000000000000000000000000 =
0?
0B
b00000000000000000000000000000000 C
#222
1#
b00110001011001101001111001000111 $
b10 %
b10 &
0;
1?
#223
1>
0?
1D
#224
0#
b01 %
b01 &
b0111 7
b00111 9
1;
1?
b01010000100010111010110100000011 G
1I
#225
0?
#226
1#
b10 %
b10 &
b1000 7
b00110 9
b01010000100010111010110100000011 :
0;
1?
b00100111101000010110110110000010 G
0I
#227
0?
#228
0#
b01 %
b01 &
b1001 7
b00101 9
b00100111101000010110110110000010 :
1;
1?
b01101101001101011000011100110010 G
#229
0>
0?
0D
#230
1#
b00100111101000010110110110000010 $
b10 %
b10 &
b01101101001101011000011100110010 :
0;
1?
#231
1<
b00101111000100011100010000011111 =
0?
1B
b00101111000100011100010000011111 C
#232
0#
b01 %
b01 &
b00101111000100011100010000011111 5
b1111 8
b00110 9
1;
1?
#233
0<
b00000000000000000000000000000000 =
1>
0?
0B
b00000000000000000000000000000000 C
1D
#234
1#
b01101101001101011000011100110010 $
b10 %
b10 &
b1010 7
b00101 9
0;
1?
b01000100101110000000001100110110 G
#235
0>
0?
0D
#236
0#
b01 %
b01 &
b01000100101110000000001100110110 :
1;
1?
#237
1>
0?
1D
#238
1#
b01000100101110000000001100110110 $
b10 %
b10 &
b1011 7
b00100 9
0;
1?
b00011110001111001001111101110000 G
1I
#239
1<
b01100111011100000000001101010011 =
0>
0?
1B
b01100111011100000000001101010011 C
0D
#240
0#
b01 %
b01 &
b01100111011100000000001101010011 6
b0000 8
b00101 9
b00011110001111001001111101110000 :
1;
1?
#241
0<
b00000000000000000000000000000000 =
1>
0?
0B
b00000000000000000000000000000000 C
1D
#242
1#
b00011110001111001001111101110000 $
b10 %
b10 &
b1100 7
b00100 9
0;
1?
b00010001110100111111000100000101 G
0I
#243
1<
b01010100101001011000101010000101 =
0>
0?
1B
b01010100101001011000101010000101 C
0D
#244
0#
b01 %
b01 &
b01010100101001011000101010000101 '
b0001 8
b00101 9
b00010001110100111111000100000101 :
1;
1?
#245
0<
b00000000000000000000000000000000 =
1>
0?
0B
b00000000000000000000000000000000 C
1D
#246
1#
b00010001110100111111000100000101 $
b10 %
b10 &
b1101 7
b00100 9
0;
1?
b01111100011110101000100100011001 G
#247
0>
0?
0D
#248
0#
b01 %
b01 &
b01111100011110101000100100011001 :
1;
1?
#249
1>
0?
1D
#250
1#
b01111100011110101000100100011001 $
b10 %
b10 &
b1110 7
b00011 9
0;
1?
b00101111000100011100010000011111 G
1I
#251
0>
0?
0D
#252
0#
b01 %
b01 &
b00101111000100011100010000011111 :
1;
1?
#253
1>
0?
1D
#254
1#
b00101111000100011100010000011111 $
b10 %
b10 &
b1111 7
b00010 9
0;
1?
b01100111011100000000001101010011 G
0I
#255
0?
#256
0#
b01 %
b01 &
b0000 7
b00001 9
b01100111011100000000001101010011 :
1;
1?
b01010100101001011000101010000101 G
1I
#257
1<
b00111100100000101100101000100011 =
0>
0?
1B
b00111100100000101100101000100011 C
0D
#258
1#
b01100111011100000000001101010011 $
b10 %
b10 &
b00111100100000101100101000100011 (
b0010 8
b00010 9
b01010100101001011000101010000101 :
0;
1?
#259
0<
b00000000000000000000000000000000 =
1>
0?
0B
b00000000000000000000000000000000 C
1D
#260
0#
b01 %
b01 &
b0001 7
b00001 9
1;
1?
b00111100100000101100101000100011 G
#261
0>
0?
0D
#262
1#
b01010100101001011000101010000101 $
b10 %
b10 &
b00111100100000101100101000100011 :
0;
1?
#263
1<
b00000000101010000001000100110010 =
0?
1B
b00000000101010000001000100110010 C
#264
0#
b01 %
b01 &
b00000000101010000001000100110010 )
b0011 8
b00010 9
1;
1?
#265
0<
b00000000000000000000000000000000 =
0?
0B
b00000000000000000000000000000000 C
#266
1#
b00111100100000101100101000100011 $
b10 %
b10 &
0;
1?
#267
0?
#268
0#
b01 %
b01 &
1;
1?
#269
1>
0?
1D
#270
1#
b10 %
b10 &
b0010 7
b00001 9
0;
1?
b00000000101010000001000100110010 G
0I
#271
0?
#272
0#
b01 %
b01 &
b0011 7
b00000 9
b00000000101010000001000100110010 :
1;
1?
0F
b00101110101111011010010100101011 G
#273
1<
b00100011111110101011110000001111 =
0>
0?
1B
b00100011111110101011110000001111 C
0D
#274
b00 %
b00 &
b00100011111110101011110000001111 *
b0100 8
b00001 9
b00101110101111011010010100101011 :
1?
1F
b00100011111110101011110000001111 G
#275
0<
b00000000000000000000000000000000 =
1>
0?
0B
b00000000000000000000000000000000 C
1D
#276
1#
b00101110101111011010010100101011 $
b10 %
b10 &
b0100 7
b00000 9
b00100011111110101011110000001111 :
0;
1?
0F
b01011010001011100110001111001100 G
#277
0>
0?
0D
#278
0#
b00 %
b00 &
b01011010001011100110001111001100 :
1?
#279
0?
#280
1?
#281
1<
b00111100011101001100100111000110 =
0?
1B
b00111100011101001100100111000110 C
#282
b00111100011101001100100111000110 +
b0101 8
b00001 9
1?
1F
b00111100011101001100100111000110 G
#283
b01101010010000000011001111010100 =
0?
b01101010010000000011001111010100 C
#284
1#
b01011010001011100110001111001100 $
b01 %
b01 &
b01101010010000000011001111010100 ,
b0110 8
b00010 9
b00111100011101001100100111000110 :
1;
1?
#285
0<
b00000000000000000000000000000000 =
1>
0?
0B
b00000000000000000000000000000000 C
1D
#286
0#
b10 %
b10 &
b0101 7
b00001 9
0;
1?
b01101010010000000011001111010100 G
1I
#287
0?
#288
1#
b00111100011101001100100111000110 $
b01 %
b01 &
b0110 7
b00000 9
b01101010010000000011001111010100 :
1;
1?
0F
b00110001011001101001111001000111 G
0I
#289
0>
0?
0D
#290
0#
b00 %
b00 &
b00110001011001101001111001000111 :
1?
#291
1<
b01000001110111010100000111001011 =
0?
1B
b01000001110111010100000111001011 C
#292
b01000001110111010100000111001011 -
b0111 8
b00001 9
1?
1F
b01000001110111010100000111001011 G
1I
#293
0<
b00000000000000000000000000000000 =
1>
0?
0B
b00000000000000000000000000000000 C
1D
#294
1#
b00110001011001101001111001000111 $
b10 %
b10 &
b0111 7
b00000 9
b01000001110111010100000111001011 :
0;
1?
0F
b01010000100010111010110100000011 G
#295
0>
0?
0D
#296
0#
b00 %
b00 &
b01010000100010111010110100000011 :
1?
#297
1<
b00111011000011000001110011100000 =
0?
1B
b00111011000011000001110011100000 C
#298
b00111011000011000001110011100000 .
b1000 8
b00001 9
1?
1F
b00111011000011000001110011100000 G
#299
b00001110110001111001001100111011 =
0?
b00001110110001111001001100111011 C
#300
1#
b01010000100010111010110100000011 $
b01 %
b01 &
b00001110110001111001001100111011 /
b1001 8
b00010 9
b00111011000011000001110011100000 :
1;
1?
#301
b00010000011110111101000011001011 =
0?
b00010000011110111101000011001011 C
#302
0#
b10 %
b10 &
b00010000011110111101000011001011 0
b1010 8
b00011 9
0;
1?
#303
b01111011110010101010100100010100 =
0?
b01111011110010101010100100010100 C
#304
1#
b00111011000011000001110011100000 $
b01 %
b01 &
b01111011110010101010100100010100 1
b1011 8
b00100 9
1;
1?
#305
b00000101110010001010111110100110 =
0?
b00000101110010001010111110100110 C
#306
0#
b10 %
b10 &
b00000101110010001010111110100110 2
b1100 8
b00101 9
0;
1?
#307
b00100000010011110000111100011111 =
0?
b00100000010011110000111100011111 C
#308
1#
b01 %
b01 &
b00100000010011110000111100011111 3
b1101 8
b00110 9
1;
1?
#309
0<
b00000000000000000000000000000000 =
0?
0B
b00000000000000000000000000000000 C
#310
0#
b10 %
b10 &
0;
1?
#311
1<
b01000100010010011100101100101110 =
0?
1B
b01000100010010011100101100101110 C
#312
1#
b01 %
b01 &
b01000100010010011100101100101110 4
b1110 8
b00111 9
1;
1?
#313
b00110011100010000000110000101011 =
0?
b00110011100010000000110000101011 C
#314
0#
b10 %
b10 &
b00110011100010000000110000101011 5
b1111 8
b01000 9
0;
1?
#315
0<
b00000000000000000000000000000000 =
1>
0?
0B
b00000000000000000000000000000000 C
1D
#316
1#
b01 %
b01 &
b1000 7
b00111 9
1;
1?
b00001110110001111001001100111011 G
#317
0>
0?
0D
#318
0#
b10 %
b10 &
b00001110110001111001001100111011 :
0;
1?
#319
1>
0?
1D
#320
1#
b00001110110001111001001100111011 $
b01 %
b01 &
b1001 7
b00110 9
1;
1?
b00010000011110111101000011001011 G
#321
1<
b00010011100001011000110000001000 =
0>
0?
1B
b00010011100001011000110000001000 C
0D
#322
0#
b10 %
b10 &
b00010011100001011000110000001000 6
b0000 8
b00111 9
b00010000011110111101000011001011 :
0;
1?
#323
0<
b00000000000000000000000000000000 =
0?
0B
b00000000000000000000000000000000 C
#324
1#
b00010000011110111101000011001011 $
b01 %
b01 &
1;
1?
#325
1<
b01111001111111110100111110000110 =
0?
1B
b01111001111111110100111110000110 C
#326
0#
b10 %
b10 &
b01111001111111110100111110000110 '
b0001 8
b01000 9
0;
1?
#327
0<
b00000000000000000000000000000000 =
1>
0?
0B
b00000000000000000000000000000000 C
1D
#328
1#
b01 %
b01 &
b1010 7
b00111 9
1;
1?
b01111011110010101010100100010100 G
0I
#329
1<
b01011111010100101011000010111011 =
0>
0?
1B
b01011111010100101011000010111011 C
0D
#330
0#
b10 %
b10 &
b01011111010100101011000010111011 (
b0010 8
b01000 9
b01111011110010101010100100010100 :
0;
1?
#331
0<
b00000000000000000000000000000000 =
1>
0?
0B
b00000000000000000000000000000000 C
1D
